Original,Simplified,Grammar,Meaning
"Jeddah is the principal gateway to Mecca , Islam 's holiest city , which able-bodied Muslims are required to visit at least once in their lifetime .
","Jeddah is the main gateway to Mecca , Islam 's holiest city .
",10.0,7.5
"The Great Dark Spot is thought to represent a hole in the methane cloud deck of Neptune .
","The Great Dark Spot is thought to represent a hole in the methane cloud deck of Neptune .
",0.0,0.0
"His next work , Saturday , follows an especially eventful day in the life of a successful neurosurgeon .
","His next work , Saturday , follows an especially eventful day in the life of a successful neurosurgeon .
",0.0,0.0
"The tarantula , the trickster character , spun a black cord and , attaching it to the ball , crawled away fast to the east , pulling on the cord with all his strength .
","The tarantula , the trickster character , spun a black cord and , attaching it to the ball .
",7.5,7.0
"There he died six weeks later , on 13 January 888 .
","There he died six weeks later , on 13 January 888 .
",0.0,0.0
"They are culturally akin to the coastal peoples of Papua New Guinea .
","They are culturally akin to the coastal peoples of Papua New Guinea .
",0.0,0.0
"Since 2000 , the recipient of the Kate Greenaway Medal has also been presented with the Colin Mears Award to the value of £ 5000 .
","Since 2000 , the winner of the Kate Greenaway Medal has also been presented with the Colin Mears Award to the value of £ 5000 .
",10.0,10.0
"Following the drummers are dancers , who often play the sogo ( a tiny drum that makes almost no sound ) and tend to have more elaborate — even acrobatic — choreography .
","Following the drummers are dancers , who often play the sogo ( a tiny drum that makes almost no sound ) and tend to have more elaborate — even acrobatic — choreography .
",0.0,0.0
"The spacecraft consists of two main elements : the NASA Cassini orbiter , named after the Italian-French astronomer Giovanni Domenico Cassini , and the ESA Huygens probe , named after the Dutch astronomer , mathematician and physicist Christiaan Huygens .
","It is named after the astronomer Giovanni Domenico Huygens .
",10.0,5.0
"Alessandro ( "" Sandro "" ) Mazzola ( born 8 November 1942 ) is an Italian former football player .
","Alessandro ( "" Sandro "" ) ( born 8 November 1942 ) is an Italian football player .
",7.0,6.5
"It was originally thought that the debris thrown up by the collision filled in the smaller craters .
","It was originally thought that the debris thrown up by the collision filled in the smaller craters .
",0.0,0.0
"Graham attended Wheaton College from 1939 to 1943 , when he graduated with a BA in anthropology .
","He attended Wheaton College from 1939 to 1943 .
",10.0,8.0
"However , the BZÖ differs a bit in comparison to the Freedom Party , as is in favor of a referendum about the Lisbon Treaty but against an EU-Withdrawal .
","The BZÖ is in favor of a referendum about the Lisbon Treaty but against an EU-Withdrawal .
",7.5,7.25
"Many species had vanished by the end of the nineteenth century , with European settlement .
","Many species had gone by the end of the nineteenth century , with European settlement .
",10.0,10.0
"In 1987 Wexler was inducted into the Rock and Roll Hall of Fame .
","In 1987 Wexler was inducted into the Rock and Roll Hall of Fame .
",0.0,0.0
"In its pure form , dextromethorphan occurs as a white powder .
","In its pure form , dextromethorphan occurs as a white powder .
",0.0,0.0
"Admission to Tsinghua is extremely competitive .
","Admission to Tsinghua is competitive .
",10.0,10.0
"Today NRC is organised as an independent , private foundation .
","Today the NRC is organised as an independent , private foundation .
",10.0,10.0
"It is situated at the coast of the Baltic Sea , where it encloses the city of Stralsund .
","It is at the coast of the Baltic Sea , where it encloses the city of Stralsund .
",10.0,10.0
"He was also named 1982 "" Sportsman of the Year "" by Sports Illustrated .
","He was also named 1982 Sportsman of the Year "" by Sports Illustrated .
",8.5,8.5
"Fives is a British sport believed to derive from the same origins as many racquet sports .
","Fives is a British sport believed to come from the same origins as many racket sports .
",10.0,10.0
"For example , King Bhumibol was born on Monday , so on his birthday throughout Thailand will be decorated with yellow color .
","For example , King Bhumibol was born on Monday .
",7.0,6.0
"Both names became defunct in 2007 when they were merged into The National Museum of Scotland .
","Both names became dissolved in 2007 when they were merged into The National Museum of Scotland .
",8.75,8.5
"Nevertheless , Tagore emulated numerous styles , including craftwork from northern New Ireland , Haida carvings from the west coast of Canada ( British Columbia ) , and woodcuts by Max Pechstein .
","Nevertheless , Tagore copied numerous styles , including craftwork from northern New Ireland , Haida carvings from the west coast of Canada ( British Columbia ) , and woodcuts by Max Pechstein .
",10.0,10.0
"On October 14 , 1960 , Presidential candidate John F. Kennedy proposed the concept of what became the Peace Corps on the steps of Michigan Union .
","On October 14 , 1960 , Presidential candidate John F. Kennedy proposed the concept of what became the Peace Corps on the steps of Michigan Union .
",0.0,0.0
"She performed for President Reagan in 1988 's Great Performances at the White House series , which aired on the Public Broadcasting Service .
","She performed for President Reagan in 1988 's Great Theatre at the White House series .
",9.5,8.0
"Perry Saturn ( with Terri ) defeated Eddie Guerrero ( with Chyna ) to win the WWF European Championship ( 8:10 ) Saturn pinned Guerrero after a Diving elbow drop .
","Perry Saturn ( with Terri ) defeated Eddie Guerrero ( with Chyna ) to win the WWF European Championship ( 8:10 ) Saturn pinned Guerrero after a Diving elbow drop .
",0.0,0.0
"She remained in the United States until 1927 when she and her husband returned to France .
","She stayed in the United States until 1927 when she and her husband returned to France .
",10.0,10.0
"Despina was discovered in late July , 1989 from the images taken by the Voyager 2 probe .
","Despina was discovered in late July , 1989 from the images taken by the Voyager 2 probe .
",0.0,0.0
"The first Italian Grand Prix motor racing championship took place on 4 September 1921 at Brescia .
","The first Italian Grand Prix motor racing championship took place on 4 September 1921 at Brescia .
",0.0,0.0
"He also completed two collections of short stories entitled The Ribbajack & Other Curious Yarns and Seven Strange and Ghostly Tales .
","He also completed two collections of short stories called The Ribbajack & Other Curious Yarns and Seven Strange and Ghostly Tales .
",10.0,10.0
"At the Voyager 2 images Ophelia appears as an elongated object , the major axis pointing towards Uranus .
","At the Voyager 2 images Ophelia appears as an elongated object , the major axis pointing towards Uranus .
",0.0,0.0
"The British decided to eliminate him and take the land by force .
","The British decided to eliminate him and take the land by force .
",0.0,0.0
"Some towns on the Eyre Highway in the south-east corner of Western Australia , between the South Australian border almost as far as Caiguna , do not follow official Western Australian time .
","Some towns on the Eyre Highway are in the south-east corner of Western Australia .
",10.0,5.75
"In architectural decoration Small pieces of colored and iridescent shell have been used to create mosaics and inlays , which have been used to decorate walls , furniture and boxes .
","Small pieces of colored and iridescent shell have been used to create mosaics and inlays .
",10.0,7.75
"The other incorporated cities on the Palos Verdes Peninsula include Rancho Palos Verdes , Rolling Hills Estates and Rolling Hills .
","It is on the Palos Verdes Peninsula .
",9.5,5.25
"Fearing that Drek will destroy the galaxy , Clank asks Ratchet to help him find the famous superhero Captain Qwark , in an effort to stop Drek .
","The next year , there was a new superhero named Captain Qwark .
",10.0,4.0
"It is not actually a true louse .
","It is not actually a true louse .
",0.0,0.0
"He advocates applying a user-centered design process in product development cycles and also works towards popularizing interaction design as a mainstream discipline .
","He also uses a user-centered design process .
",10.0,6.0
"It is theoretically possible that the other editors who may have reported you , and the administrator who blocked you , are part of a conspiracy against someone half a world away they 've never met in person .
","It is possible that the other editors who may have reported you , and the administrator who blocked you , are part of a conspiracy against someone half a world away they 've never met in person .
",10.0,10.0
"Working Group I : Assesses scientific aspects of the climate system and climate change .
","Working Group I : Assesses scientific aspects of the climate system and climate change .
",0.0,0.0
"The island chain forms part of the Hebrides , separated from the Scottish mainland and from the Inner Hebrides by the stormy waters of the Minch , the Little Minch and the Sea of the Hebrides .
","The island chain forms part of the Hebrides , separated from the Scottish mainland and from the Inner Hebrides by the stormy waters of the Minch , the Little Minch and the Sea of the Hebrides .
",0.0,0.0
"Orton and his wife welcomed Alanna Marie Orton on July 12 , 2008 .
","Orton and his wife welcomed Alanna Marie Orton on July 12 , 2008 .
",0.0,0.0
"Formal minor planet designations are number-name combinations overseen by the Minor Planet Center , a branch of the IAU .
","Formal minor planet designations are number-name combinations run by the Minor Planet Center , a branch of the IAU .
",10.0,10.0
"By early on September 30 , wind shear began to dramatically increase and a weakening trend began .
","By early on September 30 , wind shear began to increase and a weakening trend began .
",10.0,10.0
"Each entry has a datum ( a nugget of data ) which is a copy of the datum in some backing store .
","Each entry has a datum of data which is a copy of the datum in some backing store .
",8.0,9.25
"As a result , although many mosques will not enforce violations , both men and women when attending a mosque must adhere to these guidelines .
","As a result , many mosques will enforce violations , both men and women when attending a mosque must stick to these guidelines .
",10.0,7.0
"Mariel of Redwall is a fantasy novel by Brian Jacques , published in 1991 .
","Mariel of Redwall is a fantasy novel by Brian Jacques , published in 1991 .
",0.0,0.0
"Ryan Prosser ( born 10 July , 1988 ) is a professional rugby union player for Bristol Rugby in the Guinness Premiership .
","Ryan Prosser ( born 10 July 1988 ) is a rugby player .
",10.0,8.75
"Like previous assessment reports , it consists of four reports , three of them from its working groups .
","Like previous assessment reports , it consists of four reports , three of them from its working groups .
",0.0,0.0
"Their granddaughter Hélène Langevin-Joliot is a professor of nuclear physics at the University of Paris , and their grandson Pierre Joliot , who was named after Pierre Curie , is a noted biochemist .
","Their granddaughter Hélène Langevin-Joliot is a professor of nuclear physics at the University of Paris .
",10.0,6.5
"This stamp remained the standard letter stamp for the remainder of Victoria 's reign , and vast quantities were printed .
","This stamp remained the standard letter stamp for the remainder of Victoria 's reign , and vast quantities were printed .
",0.0,0.0
"The International Fight League was an American mixed martial arts ( MMA ) promotion billed as the world 's first MMA league .
","The International Fight League was an American mixed martial arts ( MMA ) promotion billed as the world 's first MMA league .
",0.0,0.0
"Giardia lamblia ( synonymous with Lamblia intestinalis and Giardia duodenalis ) is a flagellated protozoan parasite that colonises and reproduces in the small intestine , causing giardiasis .
","Giardia lamblia ( synonymous with Lamblia intestinalis and Giardia duodenalis ) is a flagellated protozoan parasite that colonises and reproduces in the small intestine , causing giardiasis .
",0.0,0.0
"Aside from this , Cameron has often worked in Christian-themed productions , among them the post-Rapture films Left Behind : The Movie , Left Behind II : Tribulation Force , and Left Behind : World at War , in which he plays Cameron "" Buck "" Williams .
","Cameron has often worked in Christian-themed productions , among them the post-Rapture films Left Behind : The Movie , Left Behind II : Tribulation Force , and Left Behind : World at War , in which he plays Cameron "" Buck "" Williams .
",10.0,10.0
"This was the area east of the mouth of the Vistula River , later sometimes called "" Prussia proper "" .
","This was the area east of the mouth of the Vistula River , later sometimes called "" Prussia proper "" .
",0.0,0.0
"After graduation he returned to Yerevan to teach at the local Conservatory and later he was appointed artistic director of the Armenian Philarmonic Orchestra .
","He was appointed artistic director of the Armenian Philarmonic Orchestra .
",10.0,7.0
"The story of Christmas is based on the biblical accounts given in the Gospel of Matthew , namely - and the Gospel of Luke , specifically - .
","The story of Christmas is based on the biblical accounts given in the Gospel of Matthew , namely - and the Gospel of Luke , specifically - .
",0.0,0.0
"Weelkes was later to find himself in trouble with the Chichester Cathedral authorities for his heavy drinking and immoderate behaviour .
","Weelkes was later to find himself in trouble with the Chichester Cathedral authorities for his heavy drinking and immoderate behaviour .
",0.0,0.0
"So far the ' celebrity ' episodes have included Vic Reeves , Nancy Sorrell , Gaby Roslin , Scott Mills , Mark Chapman , Simon Gregson , Sue Cleaver , Carol Thatcher , Paul O 'Grady and Lee Ryan .
","They have included Vic Reeves , Nancy Sorrell , Gaby Roslin , Scott Mills , and Mark Chapman .
",9.25,6.0
"It was discovered by Stephen P. Synnott in images from the Voyager 1 space probe taken on March 5 , 1979 while orbiting around Jupiter .
","It was discovered by Stephen P. Synnott in images from the Voyager 1 space probe taken on March 5 , 1979 .
",10.0,9.0
"Gomaespuma was a Spanish radio show , hosted by Juan Luis Cano and Guillermo Fesser .
","Gomaespuma was a Spanish radio show .
",10.0,8.75
"On 16 June 2009 , the official release date of The Resistance was announced on the band 's website .
","On June 16 , 2009 , the official release date of The Resistance was announced on the band 's website .
",10.0,10.0
"He is also a member of another Jungiery boyband 183 Club .
","He is also a member of another Jungiery boyband 183 Club .
",0.0,0.0
"The Apostolic Tradition , attributed to the theologian Hippolytus , attests the singing of Hallel psalms with Alleluia as the refrain in early Christian agape feasts .
","The title of the church is called `` Hippolytus '' .
",8.25,4.75
"In return , Rollo swore fealty to Charles , converted to Christianity , and undertook to defend the northern region of France against the incursions of other Viking groups .
","In return , Rollo swore fealty to Charles , converted to Christianity , and undertook to defend the northern region of France against the attacks of other Viking groups .
",10.0,10.0
"It is derived from Voice of America ( VoA ) Special English .
","It is derived from Voice of America ( VoA ) Special English .
",0.0,0.0
"Disney received a full-size Oscar statuette and seven miniature ones , presented to him by 10-year-old child actress Shirley Temple .
","Disney received a full-size Oscar statuette and seven miniature ones , presented to him by 10-year-old child actress Shirley Temple .
",0.0,0.0
"It was the first asteroid to be discovered by a spacecraft .
","It was the first asteroid to be discovered by a spacecraft .
",0.0,0.0
"Hinterrhein is an administrative district in the canton of Graubünden , Switzerland .
","Hinterrhein is an administrative district in the canton of Graubünden , Switzerland .
",0.0,0.0
"It continues as the Bohemian Switzerland in the Czech Republic .
","Bohemian Switzerland is a Bohemian Switzerland in the Czech Republic .
",6.75,7.75
"This leads to consumer confusion when 220 ( 1,048,576 ) bytes is referenced as 1 MB ( megabyte ) instead of 1 MiB .
","This is called 1 MB ( megabyte ) .
",10.0,5.0
"The incident has been the subject of numerous reports as to ethics in scholarship .
","The incident has been the subject of numerous reports as to ethics in scholarship .
",0.0,0.0
"They are castrated so that the animal may be more docile or may put on weight more quickly .
","They are castrated .
",10.0,5.75
"Seventh sons have strong "" knacks "" ( specific magical abilities ) , and seventh sons of seventh sons are both extraordinarily rare and powerful .
","Seventh sons have strong "" knacks "" ( specific magical abilities ) , and seventh sons of seventh sons are both extraordinarily rare and powerful .
",0.0,0.0
"Benchmarking conducted by PassMark Software highlights the 2009 version 's 52 second install time , 32 second scan time , and 7 MB memory utilization .
","Benchmarking is a 2009 version of Software Software .
",7.5,4.75
"Volterra is a town in the Tuscany region of Italy .
","Volterra is a town in Italy .
",10.0,9.0
"Historically , the sensations of itch and pain have not been considered to be independent of each other until recently , where it was found that itch has several features in common with pain , but exhibits notable differences .
","There are many different kinds of sensations .
",10.0,5.25
"The tongue is sticky because of the presence of glycoprotein-rich mucous , which both lubricates movement in and out of the snout and helps to catch ants and termites , which adhere to it .
","The tongue is sticky because of the presence of glycoprotein-rich mucous , which both lubricates movement in and out of the snout and helps to catch ants and termites , which adhere to it .
",0.0,0.0
"The same tram had derailed on 30 May 2006 at Starr Gate loop during previous trials .
","The same tram had derailed on 30 May 2006 at Starr Gate loop during previous trials .
",0.0,0.0
"There are statues of Sir Alf Ramsey and Sir Bobby Robson , both former Ipswich Town and England managers , outside the ground .
","There are statues of Sir Alf Ramsey and Sir Bobby Robson , both former Ipswich Town and England managers , outside the ground .
",0.0,0.0
"Take the square root of the variance .
","Take the square root of the variance .
",0.0,0.0
"Volunteers provided food , blankets , water , children 's toys , massages , and a live rock band performance for those at the stadium .
","It is a live rock band .
",10.0,4.25
"Vouvray-sur-Huisne is a commune in the Sarthe department in the region of Pays-de-la-Loire in northwestern France .
","Vouvray-sur-Huisne is a commune in the region of Pays-de-la-Loire in northwestern France .
",10.0,8.75
"If there are no strong land use controls , buildings are built along a bypass , converting it into an ordinary town road , and the bypass may eventually become as congested as the local streets it was intended to avoid .
","There are no strong land use controls .
",10.0,5.75
"It is also a starting point for people wanting to explore Cooktown , Cape York Peninsula , and the Atherton Tableland .
","It is also a starting point for people wanting to explore Cooktown , Cape York Peninsula , and the Atherton Tableland .
",0.0,0.0
"Bruises often induce pain but are not normally dangerous .
",". often induce pain but are not normally dangerous .
",7.0,5.75
"None of the authors , contributors , sponsors , administrators , vandals , or anyone else connected with Wikipedia , in any way whatsoever , can be responsible for your use of the information contained in or linked from these web pages .
","None of the authors , contributors , sponsors , administrators , vandals , or anyone else connected with Wikipedia , in any way whatsoever , can be responsible for your use of the information contained in or linked from these web pages .
",0.0,0.0
"George Frideric Handel also served as Kapellmeister for George , Elector of Hanover ( who eventually became George I of Great Britain ) .
","George Frideric Handel also served as Kapellmeister for George , Elector of Hanover ( who eventually became George I of Great Britain ) .
",0.0,0.0
"Their eyes are quite small , and their visual acuity is poor .
","Their eyes are quite small , and their visual acuity is poor .
",0.0,0.0
"They are rivaled as biological materials in toughness only by chitin .
","They are rivaled as biological materials in toughness only by chitin .
",0.0,0.0
"Oregano is an indispensable ingredient in Greek cuisine .
","Oregano is an . ingredient in Greek cuisine .
",6.25,5.75
"Tickets can be retailed for National Rail services , the Docklands Light Railway and on Oyster card .
","Tickets can be retailed for National Rail services , the Docklands Light Railway and on Oyster card .
",0.0,0.0
"These works he produced and published himself , whilst his much larger woodcuts were mostly commissioned work .
","These works he produced and published himself , whilst his much larger woodcuts were mostly commissioned work .
",0.0,0.0
"The historical method comprises the techniques and guidelines by which historians use primary sources and other evidence to research and then to write history .
","The historical method has the techniques and guidelines by which historians use primary sources and other evidence to research and then to write history .
",10.0,10.0
"The sheer weight of the continental icecap sitting on top of Lake Vostok is believed to contribute to the high oxygen concentration .
","The weight weight of the continental icecap sitting on top of Lake Vostok is believed to contribute to the high oxygen concentration .
",8.25,9.0
"As of 2000 , the population was 89,148 .
","As of 2000 , the population was 89,148 .
",0.0,0.0
"Aliteracy ( sometimes spelled alliteracy ) is the state of being able to read but being uninterested in doing so .
","Aliteracy is the state of being able to read but being uninterested in doing so .
",10.0,10.0
"Mifepristone is a synthetic steroid compound used as a pharmaceutical .
","Mifepristone is a chemical compound .
",10.0,8.25
"It will then dislodge itself and sink back to the river bed in order to digest its food and wait for its next meal .
","It will then disrupt itself and sink back to the river bed in order to digest its food and wait for its next meal .
",9.75,9.0
"Furthermore , research has shown children are less likely to report a crime if it involves someone that he or she knows , trusts , and / or cares about .
","Furthermore , research has shown children are less likely to report a crime if it involves someone that he or she knows , trusts , and / or cares about .
",0.0,0.0
"Today , Landis ' father has become a hearty supporter of his son and regards himself as one of Floyd 's biggest fans .
","Today , Landis ' father has become a supporter of his son and regards himself as one of Floyd 's biggest fans .
",10.0,10.0
"Shortly after attaining Category 4 status , the outer convection of the hurricane became ragged .
","Shortly after achieving Category 4 status , the outer convection of the hurricane became ragged .
",10.0,10.0
"The equilibrium price for a certain type of labor is the wage .
","The equilibrium price for a certain type of labor is the wage .
",0.0,0.0
"Convinced that the grounds were haunted , they decided to publish their findings in a book An Adventure ( 1911 ) , under the pseudonyms of Elizabeth Morison and Frances Lamont .
","Convinced that the grounds were haunted , they decided to publish their findings in a book An Adventure ( 1911 ) , under the pseudonyms of Elizabeth Morison and Frances Lamont .
",0.0,0.0
"He settled in London , devoting himself chiefly to practical teaching .
","He settled in London , devoting himself chiefly to practical teaching .
",0.0,0.0
"Brunstad has several fast food restaurants , a cafeteria-style restaurant , coffee bar , and its own grocery store .
","Brunstad has several fast food restaurants , a cafeteria-style restaurant , coffee bar , and its own grocery store .
",0.0,0.0
"He left a detachment of 11,000 troops to garrison the newly conquered region .
","He left 11,000 troops to move the newly conquered region .
",9.75,7.5
"In 1438 Trevi passed under the temporal rule of the Church as part of the legation of Perugia , and thenceforth its history merges first with that of the States of the Church , then ( 1860 ) with the united Kingdom of Italy .
","In 1438 Trevi passed under the temporal rule of the Church .
",9.5,6.5
"The depression moved inland on the 20th as a circulation devoid of convection , and dissipated the next day over Brazil , where it caused heavy rains and flooding .
","The depression moved inland on the 20th as a circulation devoid of convection , and dissipated the next day over Brazil , where it caused heavy rains and flooding .
",0.0,0.0
"The New York City Housing Authority Police Department was a law enforcement agency in New York City that existed from 1952 to 1995 .
","The New York City Housing Authority Police Department was a law enforcement agency in New York City that existed from 1952 to 1995 .
",0.0,0.0
"The current lineup of the band comprises Flynn ( vocals , guitar ) , Duce ( bass ) , Phil Demmel ( guitar ) , and Dave McClain ( drums ) .
","The current lineup of the band is Flynn ( vocals , guitar ) , Duce ( bass ) , Phil Demmel ( guitar ) , and Dave McClain ( drums ) .
",9.5,10.0
"Advocacy Countries with a minority Muslim population are more likely than Muslim-majority countries of the Greater Middle East to use mosques as a way to promote civic participation .
","Muslim-majority Countries with a minority Muslim population are more likely than Islamic countries of the Greater Middle East to use mosques as a way to promote civic participation .
",8.25,6.5
"The characters are foul-mouthed extensions of their earlier characters Pete and Dud .
","The characters are foul-mouthed extensions of their earlier characters Pete and Dud .
",0.0,0.0
"Johan was also the original bassist of the Swedish power metal band HammerFall , but quit before the band ever released a studio album .
","Johan was also the original bassist of the Swedish power metal band HammerFall .
",10.0,8.0
"In 1998 , Culver ran for Iowa Secretary of State and was victorious .
","In 1998 , Culver ran for Iowa Secretary of State and was victorious .
",0.0,0.0
"In 1990 , Mark Messier took the Hart over Ray Bourque by a margin of two votes , the difference being a single first-place vote .
","In 1990 , Mark Messier took the Hart over Ray Bourque by a margin of two votes , the difference being a single first-place vote .
",0.0,0.0
"Shade sets the main plot of the novel in motion when he impetuously defies that law , and inadvertently initiates a chain of events that leads to the destruction of his colony 's home , forcing their premature migration , and his separation from them .
","The story is about the story of the novel .
",8.5,5.25
"The female equivalent is a daughter .
","The female equivalent is a daughter .
",0.0,0.0
"He was diagnosed with inoperable abdominal cancer in April 1999 .
","He was diagnosed with inoperable abdominal cancer in April 1999 .
",0.0,0.0
,,8.24609375,6.74609375
